%YAML 1.1
%TAG !u! tag:unity3d.com,2011:
--- !u!21 &2100000
Material:
  serializedVersion: 6
  m_ObjectHideFlags: 0
  m_PrefabParentObject: {fileID: 0}
  m_PrefabInternal: {fileID: 0}
  m_Name: plasma_beam_heavy_green
  m_Shader: {fileID: 4800000, guid: c2e6181fdc3a7f44da5b73b6b0ce790c, type: 3}
  m_ShaderKeywords: 
  m_LightmapFlags: 5
  m_EnableInstancingVariants: 0
  m_DoubleSidedGI: 0
  m_CustomRenderQueue: -1
  stringTagMap: {}
  disabledShaderPasses: []
  m_SavedProperties:
    serializedVersion: 3
    m_TexEnvs:
    - _MainTex:
        m_Texture: {fileID: 2800000, guid: e7158668affd00b43878f25838ac50d2, type: 3}
        m_Scale: {x: 3, y: 1}
        m_Offset: {x: 0, y: 0}
    m_Floats:
    - _InvFade: 3
    m_Colors:
    - _Color: {r: 1, g: 1, b: 1, a: 1}
    - _TintColor: {r: 0.6074036, g: 0, b: 0.7794118, a: 1}
