%YAML 1.1
%TAG !u! tag:unity3d.com,2011:
--- !u!21 &2100000
Material:
  serializedVersion: 6
  m_ObjectHideFlags: 0
  m_PrefabParentObject: {fileID: 0}
  m_PrefabInternal: {fileID: 0}
  m_Name: pulsewave_001
  m_Shader: {fileID: 4800000, guid: 96a3f181331826446bdc9e7f6d784a48, type: 3}
  m_ShaderKeywords: 
  m_LightmapFlags: 5
  m_EnableInstancingVariants: 0
  m_DoubleSidedGI: 0
  m_CustomRenderQueue: -1
  stringTagMap: {}
  disabledShaderPasses: []
  m_SavedProperties:
    serializedVersion: 3
    m_TexEnvs:
    - _Cube:
        m_Texture: {fileID: 0}
        m_Scale: {x: 1, y: 1}
        m_Offset: {x: 0, y: 0}
    - _MainTex:
        m_Texture: {fileID: 2800000, guid: 3b854a490aee560478e88ad7537338a6, type: 3}
        m_Scale: {x: 1.618, y: 1}
        m_Offset: {x: 0, y: 0}
    m_Floats:
    - _InvFade: 0.01
    m_Colors:
    - _Color: {r: 0.08823532, g: 0.0945233, b: 1, a: 0.3529412}
    - _ReflectColor: {r: 1, g: 1, b: 1, a: 0.5}
    - _TintColor: {r: 1, g: 1, b: 1, a: 1}
