%YAML 1.1
%TAG !u! tag:unity3d.com,2011:
--- !u!78 &1
TagManager:
  serializedVersion: 2
  tags:
  - Bullet
  - Fire
  - L_Player_PopShield
  - ball
  - R_Player_PopShield
  - L_Player_Container
  - L_LaserHitObj
  - LeftHitEffect
  - L_Muzzle
  - R_Player_Container
  - R_Muzzle
  - R_LaserHitObj
  - RightHitEffect
  - Rshield
  - CanDestroy
  - Robot
  - HUD
  - wall
  - Lshield
  - L_Aim_Fire_Obj
  - R_Aim_Fire_Obj
  - canvas
  - obstacle
  - sonic00
  - Lsonic00
  - Rsonic00
  - LMegasonic
  - RMegasonic
  - goal
  - congfigObj
  - flap
  - rotating_tri
  - flop
  - portal
  - lsheildbar
  - rsheildbar
  - AI_Button
  - go_button
  - RButtons
  - menuTag
  - aiButtonContainer
  - aimask
  - metalText
  - laserDemo
  - demoLaserHitObj
  layers:
  - Default
  - TransparentFX
  - Ignore Raycast
  - 
  - Water
  - UI
  - 
  - 
  - wallsNplayersLayer
  - ball
  - 
  - 
  - 
  - 
  - 
  - 
  - 
  - 
  - 
  - 
  - 
  - 
  - 
  - 
  - 
  - 
  - 
  - 
  - 
  - 
  - 
  - 
  m_SortingLayers:
  - name: Default
    uniqueID: 0
    locked: 0
